{
"type": "FeatureCollection",
"name": "via-verde",
"crs": { "type": "name", "properties": { "name": "urn:ogc:def:crs:OGC:1.3:CRS84" } },
"features": [
{ "type": "Feature", "properties": { "id": null }, "geometry": { "type": "LineString", "coordinates": [ [ -76.989068150376042, -12.103408651340812 ], [ -76.9907947, -12.1023875 ], [ -76.992552, -12.1009943 ], [ -76.9932165, -12.1006693 ], [ -76.9940004, -12.100462 ], [ -76.9956066, -12.1003672 ], [ -76.9967906, -12.1003895 ], [ -76.9980144, -12.1005109 ], [ -76.9998256, -12.100855 ], [ -77.0005731, -12.1006418 ], [ -77.0008813, -12.1006311 ], [ -77.0024883, -12.1008977 ], [ -77.0041561, -12.1009858 ], [ -77.0054537, -12.1009723 ], [ -77.0063756, -12.1008549 ], [ -77.0078305, -12.1006025 ], [ -77.0083798, -12.1004367 ], [ -77.0086929, -12.1002841 ], [ -77.0091545, -12.0998651 ], [ -77.0095089, -12.0993254 ], [ -77.0096501, -12.0988035 ], [ -77.0097404, -12.0980665 ], [ -77.0097106, -12.0973961 ], [ -77.0094098, -12.0960676 ], [ -77.0092837, -12.095809 ], [ -77.0090002, -12.0954257 ], [ -77.0085265, -12.0951731 ], [ -77.008236, -12.0950808 ], [ -77.0052477, -12.0944933 ], [ -77.0020977, -12.0945136 ], [ -77.0010163, -12.0943758 ], [ -77.0001697, -12.0942188 ], [ -76.9991666, -12.0939388 ], [ -76.997583, -12.09331 ], [ -76.9963471, -12.0931505 ], [ -76.9956433, -12.0931421 ], [ -76.9947335, -12.0932512 ], [ -76.9934282, -12.0936759 ], [ -76.9926628, -12.0940761 ], [ -76.991844, -12.095142 ], [ -76.9910822, -12.0956707 ], [ -76.9905361, -12.0958505 ], [ -76.9900342, -12.0958611 ], [ -76.9897191, -12.0959302 ], [ -76.9892231, -12.0961131 ], [ -76.9892371, -12.0982773 ], [ -76.9890894, -12.0995875 ], [ -76.9892607, -12.100388 ], [ -76.9888007, -12.100438 ], [ -76.98854, -12.0986559 ], [ -76.9885315, -12.0983622 ], [ -76.9887064, -12.0969849 ], [ -76.988581, -12.096307 ], [ -76.9878359, -12.0965643 ], [ -76.9875247, -12.0966173 ], [ -76.9854632, -12.0965148 ], [ -76.9850689, -12.0965706 ], [ -76.9845282, -12.0967845 ], [ -76.9834811, -12.0974726 ], [ -76.983215, -12.0976153 ], [ -76.9829317, -12.0976992 ], [ -76.9825455, -12.0977328 ], [ -76.9810056, -12.0975408 ], [ -76.98028, -12.1030526 ], [ -76.9829119, -12.1032391 ], [ -76.9829382, -12.1029353 ], [ -76.9824202, -12.1028585 ], [ -76.9823394, -12.1028963 ], [ -76.9819365, -12.102893 ], [ -76.981197, -12.1027449 ], [ -76.980280936640924, -12.102679048157627 ], [ -76.980305033281539, -12.102474226712301 ], [ -76.9810678, -12.1025225 ], [ -76.9817167, -12.1024797 ], [ -76.9824167, -12.102526 ], [ -76.9831237, -12.1026328 ], [ -76.9831564, -12.1027502 ], [ -76.9831103, -12.1032537 ], [ -76.9847058, -12.1033732 ], [ -76.9849577, -12.1035171 ], [ -76.985071, -12.1037133 ], [ -76.9850874, -12.1038917 ], [ -76.9848098, -12.1077689 ], [ -76.9864499, -12.1078788 ], [ -76.9870594, -12.1077935 ], [ -76.9878663, -12.1078407 ], [ -76.9881505, -12.107789 ], [ -76.9883809, -12.107643 ], [ -76.9885335, -12.1074319 ], [ -76.9886021, -12.1072034 ], [ -76.9888409, -12.1039287 ], [ -76.9888763, -12.1037216 ], [ -76.989029, -12.10345 ] ] } }
]
}
